ALU_testvf/Half_adder/simulation/qsim/Half_adder.msim.vcd
$comment
	File created using the following command:
		vcd file Half_adder.msim.vcd -direction
$end
$date
	Tue Nov 15 17:11:27 2022
$end
$version
	ModelSim Version 10.1d
$end
$timescale
	1ps
$end
$scope module Half_adder_vlg_vec_tst $end
$var reg 8 ! aa [7:0] $end
$var reg 8 " bb [7:0] $end
$var reg 1 # operacio0 $end
$var reg 1 $ operacio1 $end
$var reg 1 % operacio2 $end
$var wire 1 & cout $end
$var wire 1 ' sor_sum_res [7] $end
$var wire 1 ( sor_sum_res [6] $end
$var wire 1 ) sor_sum_res [5] $end
$var wire 1 * sor_sum_res [4] $end
$var wire 1 + sor_sum_res [3] $end
$var wire 1 , sor_sum_res [2] $end
$var wire 1 - sor_sum_res [1] $end
$var wire 1 . sor_sum_res [0] $end
$var wire 1 / sampler $end
$scope module i1 $end
$var wire 1 0 gnd $end
$var wire 1 1 vcc $end
$var wire 1 2 unknown $end
$var tri1 1 3 devclrn $end
$var tri1 1 4 devpor $end
$var tri1 1 5 devoe $end
$var wire 1 6 cout~output_o $end
$var wire 1 7 sor_sum_res[0]~output_o $end
$var wire 1 8 sor_sum_res[1]~output_o $end
$var wire 1 9 sor_sum_res[2]~output_o $end
$var wire 1 : sor_sum_res[3]~output_o $end
$var wire 1 ; sor_sum_res[4]~output_o $end
$var wire 1 < sor_sum_res[5]~output_o $end
$var wire 1 = sor_sum_res[6]~output_o $end
$var wire 1 > sor_sum_res[7]~output_o $end
$var wire 1 ? operacio2~input_o $end
$var wire 1 @ operacio0~input_o $end
$var wire 1 A invb~combout $end
$var wire 1 B bb[5]~input_o $end
$var wire 1 C bb[1]~input_o $end
$var wire 1 D aa[1]~input_o $end
$var wire 1 E operacio1~input_o $end
$var wire 1 F bb[0]~input_o $end
$var wire 1 G aa[0]~input_o $end
$var wire 1 H cin~0_combout $end
$var wire 1 I cin~1_combout $end
$var wire 1 J cin~2_combout $end
$var wire 1 K bb[2]~input_o $end
$var wire 1 L aa[2]~input_o $end
$var wire 1 M cin~3_combout $end
$var wire 1 N aa[3]~input_o $end
$var wire 1 O bb[3]~input_o $end
$var wire 1 P cin~4_combout $end
$var wire 1 Q aa[4]~input_o $end
$var wire 1 R bb[4]~input_o $end
$var wire 1 S cin~5_combout $end
$var wire 1 T aa[5]~input_o $end
$var wire 1 U cin~6_combout $end
$var wire 1 V aa[6]~input_o $end
$var wire 1 W bb[6]~input_o $end
$var wire 1 X cin~7_combout $end
$var wire 1 Y bb[7]~input_o $end
$var wire 1 Z aa[7]~input_o $end
$var wire 1 [ cout~0_combout $end
$var wire 1 \ sor_sum_res~0_combout $end
$var wire 1 ] sor_sum_res~1_combout $end
$var wire 1 ^ sor_sum_res~2_combout $end
$var wire 1 _ sor_sum_res~3_combout $end
$var wire 1 ` sor_sum_res~4_combout $end
$var wire 1 a sor_sum_res~5_combout $end
$var wire 1 b sor_sum_res~6_combout $end
$var wire 1 c sor_sum_res~7_combout $end
$var wire 1 d cin [7] $end
$var wire 1 e cin [6] $end
$var wire 1 f cin [5] $end
$var wire 1 g cin [4] $end
$var wire 1 h cin [3] $end
$var wire 1 i cin [2] $end
$var wire 1 j cin [1] $end
$var wire 1 k cin [0] $end
$var wire 1 l a_entr_sum [7] $end
$var wire 1 m a_entr_sum [6] $end
$var wire 1 n a_entr_sum [5] $end
$var wire 1 o a_entr_sum [4] $end
$var wire 1 p a_entr_sum [3] $end
$var wire 1 q a_entr_sum [2] $end
$var wire 1 r a_entr_sum [1] $end
$var wire 1 s a_entr_sum [0] $end
$upscope $end
$upscope $end
$enddefinitions $end
#0
$dumpvars
b0 !
b11 "
0#
1$
0%
0&
1.
0-
1,
1+
1*
1)
1(
1'
x/
00
11
x2
13
14
15
06
17
08
19
1:
1;
1<
1=
1>
0?
0@
0A
0B
1C
0D
1E
1F
0G
0H
0I
0J
0K
0L
0M
0N
0O
0P
0Q
0R
0S
0T
0U
0V
0W
0X
0Y
0Z
0[
0\
1]
0^
0_
0`
0a
0b
0c
1k
zj
zi
zh
zg
zf
ze
zd
0s
0r
0q
0p
0o
0n
0m
0l
$end
#20000
b1 !
b111 "
b101 "
b100 "
0F
0C
1K
1G
0/
1\
1H
0]
1^
1s
1]
1I
0\
07
18
09
0.
1-
0,
1J
08
17
0-
1.
0^
19
1,
#40000
b11 !
b10 !
b101 "
1F
0G
1D
1/
1\
0s
1r
0\
0H
0]
07
0.
1]
0I
17
18
1.
1-
0J
08
0-
1^
09
0,
#60000
b111 "
b11 !
b110 "
1G
0F
1C
0/
1s
1\
1J
1H
0]
0\
0^
1]
1I
07
18
0.
1-
17
19
08
1.
1,
0-
#80000
b111 !
b101 !
b100 !
b111 "
1F
0G
0D
1L
1/
1\
0s
0r
1q
0\
0H
0]
0I
1^
1M
07
0.
1]
0J
1_
1P
17
18
09
1.
1-
0,
0^
0M
1`
1S
08
0:
0-
0+
0_
0P
1a
1U
19
0;
1,
0*
0`
0S
1b
1X
1:
0<
1+
0)
0a
0U
1c
1;
0=
1*
0(
1[
0b
0X
1<
0>
16
1)
0'
1&
0c
1=
1(
0[
1>
06
1'
0&
#100000
b1111 "
b1011 "
b1001 "
b101 !
b1000 "
1G
0F
0C
0K
1O
0/
1s
1\
1H
0]
1^
1M
1_
0\
1]
1I
0_
07
18
09
0:
0.
1-
0,
0+
1J
17
08
1:
1.
0-
1+
0^
19
1,
#120000
b111 !
b110 !
b1001 "
1F
0G
1D
1/
1\
0s
1r
0\
0H
0]
07
0.
1]
0I
17
18
1.
1-
0J
08
0-
1^
09
0,
#140000
b1011 "
b111 !
b1010 "
1G
0F
1C
0/
1s
1\
1J
1H
0]
0\
0^
1]
1I
07
18
0.
1-
17
19
08
1.
1,
0-
#160000
b1111 !
b1011 !
b1001 !
b1000 !
b1011 "
1F
0G
0D
0L
1N
1/
1\
0s
0r
0q
1p
0\
0H
0]
0I
1^
1_
1P
07
0.
1]
0J
1`
1S
17
18
09
0:
1.
1-
0,
0+
0^
0M
1a
1U
08
0;
0-
0*
0_
0P
1b
1X
19
0<
1,
0)
0`
0S
1c
1:
0=
1+
0(
1[
0a
0U
1;
0>
16
1*
0'
1&
0b
0X
1<
1)
0c
1=
1(
0[
1>
06
1'
0&
#180000
b1111 "
b1101 "
b1001 !
b1100 "
1G
0F
0C
1K
0/
1s
1\
1H
0]
1^
0\
1]
1I
07
18
09
0.
1-
0,
1J
17
08
1.
0-
0^
19
1,
#200000
b1011 !
b1010 !
b1101 "
1F
0G
1D
1/
1\
0s
1r
0\
0H
0]
07
0.
1]
0I
17
18
1.
1-
0J
08
0-
1^
09
0,
#220000
b1111 "
b1011 !
b1110 "
1G
0F
1C
0/
1s
1\
1J
1H
0]
0\
0^
1]
1I
07
18
0.
1-
17
19
08
1.
1,
0-
#240000
b1111 !
b1101 !
b1100 !
b1111 "
1F
0G
0D
1L
1/
1\
0s
0r
1q
0\
0H
0]
0I
1^
1M
07
0.
1]
0J
1_
1P
17
18
09
1.
1-
0,
0^
0M
1`
1S
08
0:
0-
0+
0_
0P
1a
1U
19
0;
1,
0*
0`
0S
1b
1X
1:
0<
1+
0)
0a
0U
1c
1;
0=
1*
0(
1[
0b
0X
1<
0>
16
1)
0'
1&
0c
1=
1(
0[
1>
06
1'
0&
#260000
b11111 "
b10111 "
b10011 "
b10001 "
b1101 !
b10000 "
1G
0F
0C
0K
0O
1R
0/
1s
1\
1H
0]
1^
1M
1_
1P
1`
0\
1]
1I
0_
0`
07
18
09
0:
0;
0.
1-
0,
0+
0*
1J
17
08
1:
1;
1.
0-
1+
1*
0^
19
1,
#280000
b1111 !
b1110 !
b10001 "
1F
0G
1D
1/
1\
0s
1r
0\
0H
0]
07
0.
1]
0I
17
18
1.
1-
0J
08
0-
1^
09
0,
#300000
b10011 "
b1111 !
b10010 "
1G
0F
1C
0/
1s
1\
1J
1H
0]
0\
0^
1]
1I
07
18
0.
1-
17
19
08
1.
1,
0-
#320000
b11111 !
b10111 !
b10011 !
b10001 !
b10000 !
b10011 "
1F
0G
0D
0L
0N
1Q
1/
1\
0s
0r
0q
0p
1o
0\
0H
0]
0I
1^
1_
1`
1S
07
0.
1]
0J
1a
1U
17
18
09
0:
0;
1.
1-
0,
0+
0*
0^
0M
1b
1X
08
0<
0-
0)
0_
0P
1c
19
0=
1,
0(
1[
0`
0S
1:
0>
16
1+
0'
1&
0a
0U
1;
1*
0b
0X
1<
1)
0c
1=
1(
0[
1>
06
1'
0&
#340000
b10010000 !
b11010000 !
b10010011 "
b11010011 "
b11011011 "
b11011111 "
b11011000 !
b11011100 !
b11011110 !
b11011111 !
1K
1O
1W
1Y
1G
1D
1L
1N
1V
1Z
0/
1^
1_
1b
1c
1s
1r
1q
1p
1m
1l
1\
1H
0]
0^
0_
0b
0c
09
0:
0=
0>
0,
0+
0(
0'
1]
1I
07
18
19
1:
1=
1>
0.
1-
1,
1+
1(
1'
1J
08
0-
1^
1M
1_
1P
09
0,
1`
1S
0:
0+
1a
1U
0;
0*
1b
1X
0<
0)
1c
0=
0(
1[
0>
16
0'
1&
#360000
b11111111 !
b11111111 "
b11101111 "
b11101101 "
b11101111 !
b11101100 "
b11100100 "
b11100000 "
b11100111 !
b11100011 !
b11100001 !
b11100000 !
0F
0C
0K
0O
0R
1B
0G
0D
0L
0N
0Q
1T
1/
0\
0]
0^
0_
0`
0a
0U
0s
0r
0q
0p
0o
1n
0b
0X
1\
1]
1^
1_
1`
1a
1U
17
18
19
1:
1;
1<
1.
1-
1,
1+
1*
1)
0c
1b
1X
1=
07
08
09
0:
0;
0<
1(
0.
0-
0,
0+
0*
0)
0[
1c
1>
0=
06
1'
0(
0&
1[
0>
16
0'
1&
#380000
b11100001 "
b11100001 !
1G
1F
0/
1s
0\
0H
1\
1H
0]
0I
17
1.
1]
1I
0J
07
18
0.
1-
1J
0^
0M
08
0-
1^
1M
0_
0P
19
1,
1_
1P
0`
0S
09
1:
0,
1+
1`
1S
0a
0U
0:
1;
0+
1*
1a
1U
0b
0X
0;
1<
0*
1)
1b
1X
0c
0<
1=
0)
1(
0[
1c
0=
1>
06
0(
1'
0&
1[
0>
16
0'
1&
#400000
b11100011 "
b11100011 !
b11100010 "
b11100010 !
0G
1D
0F
1C
1/
0s
1r
0\
0]
0I
1\
1]
1I
17
18
1.
1-
07
08
0.
0-
#420000
b11100011 "
b11100011 !
1G
1F
0/
1s
0\
0H
1\
1H
0]
0I
17
1.
1]
1I
0J
07
18
0.
1-
1J
0^
0M
08
0-
1^
1M
0_
0P
19
1,
1_
1P
0`
0S
09
1:
0,
1+
1`
1S
0a
0U
0:
1;
0+
1*
1a
1U
0b
0X
0;
1<
0*
1)
1b
1X
0c
0<
1=
0)
1(
0[
1c
0=
1>
06
0(
1'
0&
1[
0>
16
0'
1&
#440000
b11100111 "
b11100111 !
b11100101 "
b11100101 !
b11100100 "
b11100100 !
0G
0D
1L
0F
0C
1K
1/
0s
0r
1q
0\
0]
0^
0M
1\
1]
1^
1M
0_
0P
17
18
19
1.
1-
1,
1_
1P
0`
0S
07
08
09
1:
0.
0-
0,
1+
1`
1S
0a
0U
0:
1;
0+
1*
1a
1U
0b
0X
0;
1<
0*
1)
1b
1X
0c
0<
1=
0)
1(
0[
1c
0=
1>
06
0(
1'
0&
1[
0>
16
0'
1&
#460000
b11100101 "
b11100101 !
1G
1F
0/
1s
0\
0H
1\
1H
0]
0I
17
1.
1]
1I
0J
07
18
0.
1-
1J
0^
0M
08
0-
1^
1M
0_
0P
19
1,
1_
1P
0`
0S
09
1:
0,
1+
1`
1S
0a
0U
0:
1;
0+
1*
1a
1U
0b
0X
0;
1<
0*
1)
1b
1X
0c
0<
1=
0)
1(
0[
1c
0=
1>
06
0(
1'
0&
1[
0>
16
0'
1&
#480000
b11100111 "
b11100111 !
b11100110 "
b11100110 !
0G
1D
0F
1C
1/
0s
1r
0\
0]
0I
1\
1]
1I
17
18
1.
1-
07
08
0.
0-
#500000
b11100111 "
b11100111 !
1G
1F
0/
1s
0\
0H
1\
1H
0]
0I
17
1.
1]
1I
0J
07
18
0.
1-
1J
0^
0M
08
0-
1^
1M
0_
0P
19
1,
1_
1P
0`
0S
09
1:
0,
1+
1`
1S
0a
0U
0:
1;
0+
1*
1a
1U
0b
0X
0;
1<
0*
1)
1b
1X
0c
0<
1=
0)
1(
0[
1c
0=
1>
06
0(
1'
0&
1[
0>
16
0'
1&
#520000
b11101111 "
b11101111 !
b11101011 "
b11101011 !
b11101001 "
b11101001 !
b11101000 "
b11101000 !
0G
0D
0L
1N
0F
0C
0K
1O
1/
0s
0r
0q
1p
0\
0]
0^
0_
0P
1\
1]
1^
1_
1P
0`
0S
17
18
19
1:
1.
1-
1,
1+
1`
1S
0a
0U
07
08
09
0:
1;
0.
0-
0,
0+
1*
1a
1U
0b
0X
0;
1<
0*
1)
1b
1X
0c
0<
1=
0)
1(
0[
1c
0=
1>
06
0(
1'
0&
1[
0>
16
0'
1&
#540000
b11101001 "
b11101001 !
1G
1F
0/
1s
0\
0H
1\
1H
0]
0I
17
1.
1]
1I
0J
07
18
0.
1-
1J
0^
0M
08
0-
1^
1M
0_
0P
19
1,
1_
1P
0`
0S
09
1:
0,
1+
1`
1S
0a
0U
0:
1;
0+
1*
1a
1U
0b
0X
0;
1<
0*
1)
1b
1X
0c
0<
1=
0)
1(
0[
1c
0=
1>
06
0(
1'
0&
1[
0>
16
0'
1&
#560000
b11101011 "
b11101011 !
b11101010 "
b11101010 !
0G
1D
0F
1C
1/
0s
1r
0\
0]
0I
1\
1]
1I
17
18
1.
1-
07
08
0.
0-
#580000
b11101011 "
b11101011 !
1G
1F
0/
1s
0\
0H
1\
1H
0]
0I
17
1.
1]
1I
0J
07
18
0.
1-
1J
0^
0M
08
0-
1^
1M
0_
0P
19
1,
1_
1P
0`
0S
09
1:
0,
1+
1`
1S
0a
0U
0:
1;
0+
1*
1a
1U
0b
0X
0;
1<
0*
1)
1b
1X
0c
0<
1=
0)
1(
0[
1c
0=
1>
06
0(
1'
0&
1[
0>
16
0'
1&
#600000
b11101111 "
b11101111 !
b11101101 "
b11101101 !
b11101100 "
b11101100 !
0G
0D
1L
0F
0C
1K
1/
0s
0r
1q
0\
0]
0^
0M
1\
1]
1^
1M
0_
0P
17
18
19
1.
1-
1,
1_
1P
0`
0S
07
08
09
1:
0.
0-
0,
1+
1`
1S
0a
0U
0:
1;
0+
1*
1a
1U
0b
0X
0;
1<
0*
1)
1b
1X
0c
0<
1=
0)
1(
0[
1c
0=
1>
06
0(
1'
0&
1[
0>
16
0'
1&
#620000
b11101101 "
b11101101 !
1G
1F
0/
1s
0\
0H
1\
1H
0]
0I
17
1.
1]
1I
0J
07
18
0.
1-
1J
0^
0M
08
0-
1^
1M
0_
0P
19
1,
1_
1P
0`
0S
09
1:
0,
1+
1`
1S
0a
0U
0:
1;
0+
1*
1a
1U
0b
0X
0;
1<
0*
1)
1b
1X
0c
0<
1=
0)
1(
0[
1c
0=
1>
06
0(
1'
0&
1[
0>
16
0'
1&
#640000
b11101111 "
b11101111 !
b11101110 "
b11101110 !
0G
1D
0F
1C
1/
0s
1r
0\
0]
0I
1\
1]
1I
17
18
1.
1-
07
08
0.
0-
#660000
b11101111 "
b11101111 !
1G
1F
0/
1s
0\
0H
1\
1H
0]
0I
17
1.
1]
1I
0J
07
18
0.
1-
1J
0^
0M
08
0-
1^
1M
0_
0P
19
1,
1_
1P
0`
0S
09
1:
0,
1+
1`
1S
0a
0U
0:
1;
0+
1*
1a
1U
0b
0X
0;
1<
0*
1)
1b
1X
0c
0<
1=
0)
1(
0[
1c
0=
1>
06
0(
1'
0&
1[
0>
16
0'
1&
#680000
b11111111 "
b11111111 !
b11110111 "
b11110111 !
b11110011 "
b11110011 !
b11110001 "
b11110001 !
b11110000 "
b11110000 !
0G
0D
0L
0N
1Q
0F
0C
0K
0O
1R
1/
0s
0r
0q
0p
1o
0\
0]
0^
0_
0`
0S
1\
1]
1^
1_
1`
1S
0a
0U
17
18
19
1:
1;
1.
1-
1,
1+
1*
1a
1U
0b
0X
07
08
09
0:
0;
1<
0.
0-
0,
0+
0*
1)
1b
1X
0c
0<
1=
0)
1(
0[
1c
0=
1>
06
0(
1'
0&
1[
0>
16
0'
1&
#700000
b11110001 "
b11110001 !
1G
1F
0/
1s
0\
0H
1\
1H
0]
0I
17
1.
1]
1I
0J
07
18
0.
1-
1J
0^
0M
08
0-
1^
1M
0_
0P
19
1,
1_
1P
0`
0S
09
1:
0,
1+
1`
1S
0a
0U
0:
1;
0+
1*
1a
1U
0b
0X
0;
1<
0*
1)
1b
1X
0c
0<
1=
0)
1(
0[
1c
0=
1>
06
0(
1'
0&
1[
0>
16
0'
1&
#720000
b11110011 "
b11110011 !
b11110010 "
b11110010 !
0G
1D
0F
1C
1/
0s
1r
0\
0]
0I
1\
1]
1I
17
18
1.
1-
07
08
0.
0-
#740000
b11110011 "
b11110011 !
1G
1F
0/
1s
0\
0H
1\
1H
0]
0I
17
1.
1]
1I
0J
07
18
0.
1-
1J
0^
0M
08
0-
1^
1M
0_
0P
19
1,
1_
1P
0`
0S
09
1:
0,
1+
1`
1S
0a
0U
0:
1;
0+
1*
1a
1U
0b
0X
0;
1<
0*
1)
1b
1X
0c
0<
1=
0)
1(
0[
1c
0=
1>
06
0(
1'
0&
1[
0>
16
0'
1&
#760000
b11110111 "
b11110111 !
b11110101 "
b11110101 !
b11110100 "
b11110100 !
0G
0D
1L
0F
0C
1K
1/
0s
0r
1q
0\
0]
0^
0M
1\
1]
1^
1M
0_
0P
17
18
19
1.
1-
1,
1_
1P
0`
0S
07
08
09
1:
0.
0-
0,
1+
1`
1S
0a
0U
0:
1;
0+
1*
1a
1U
0b
0X
0;
1<
0*
1)
1b
1X
0c
0<
1=
0)
1(
0[
1c
0=
1>
06
0(
1'
0&
1[
0>
16
0'
1&
#780000
b11110101 "
b11110101 !
1G
1F
0/
1s
0\
0H
1\
1H
0]
0I
17
1.
1]
1I
0J
07
18
0.
1-
1J
0^
0M
08
0-
1^
1M
0_
0P
19
1,
1_
1P
0`
0S
09
1:
0,
1+
1`
1S
0a
0U
0:
1;
0+
1*
1a
1U
0b
0X
0;
1<
0*
1)
1b
1X
0c
0<
1=
0)
1(
0[
1c
0=
1>
06
0(
1'
0&
1[
0>
16
0'
1&
#800000
b11110111 "
b11110111 !
b11110110 "
b11110110 !
0G
1D
0F
1C
1/
0s
1r
0\
0]
0I
1\
1]
1I
17
18
1.
1-
07
08
0.
0-
#820000
b11110111 "
b11110111 !
1G
1F
0/
1s
0\
0H
1\
1H
0]
0I
17
1.
1]
1I
0J
07
18
0.
1-
1J
0^
0M
08
0-
1^
1M
0_
0P
19
1,
1_
1P
0`
0S
09
1:
0,
1+
1`
1S
0a
0U
0:
1;
0+
1*
1a
1U
0b
0X
0;
1<
0*
1)
1b
1X
0c
0<
1=
0)
1(
0[
1c
0=
1>
06
0(
1'
0&
1[
0>
16
0'
1&
#840000
b11111111 "
b11111111 !
b11111011 "
b11111011 !
b11111001 "
b11111001 !
b11111000 "
b11111000 !
0G
0D
0L
1N
0F
0C
0K
1O
1/
0s
0r
0q
1p
0\
0]
0^
0_
0P
1\
1]
1^
1_
1P
0`
0S
17
18
19
1:
1.
1-
1,
1+
1`
1S
0a
0U
07
08
09
0:
1;
0.
0-
0,
0+
1*
1a
1U
0b
0X
0;
1<
0*
1)
1b
1X
0c
0<
1=
0)
1(
0[
1c
0=
1>
06
0(
1'
0&
1[
0>
16
0'
1&
#860000
b11111001 "
b11111001 !
1G
1F
0/
1s
0\
0H
1\
1H
0]
0I
17
1.
1]
1I
0J
07
18
0.
1-
1J
0^
0M
08
0-
1^
1M
0_
0P
19
1,
1_
1P
0`
0S
09
1:
0,
1+
1`
1S
0a
0U
0:
1;
0+
1*
1a
1U
0b
0X
0;
1<
0*
1)
1b
1X
0c
0<
1=
0)
1(
0[
1c
0=
1>
06
0(
1'
0&
1[
0>
16
0'
1&
#880000
b11111011 "
b11111011 !
b11111010 "
b11111010 !
0G
1D
0F
1C
1/
0s
1r
0\
0]
0I
1\
1]
1I
17
18
1.
1-
07
08
0.
0-
#900000
b11111011 "
b11111011 !
1G
1F
0/
1s
0\
0H
1\
1H
0]
0I
17
1.
1]
1I
0J
07
18
0.
1-
1J
0^
0M
08
0-
1^
1M
0_
0P
19
1,
1_
1P
0`
0S
09
1:
0,
1+
1`
1S
0a
0U
0:
1;
0+
1*
1a
1U
0b
0X
0;
1<
0*
1)
1b
1X
0c
0<
1=
0)
1(
0[
1c
0=
1>
06
0(
1'
0&
1[
0>
16
0'
1&
#920000
b11111111 "
b11111111 !
b11111101 "
b11111101 !
b11111100 "
b11111100 !
0G
0D
1L
0F
0C
1K
1/
0s
0r
1q
0\
0]
0^
0M
1\
1]
1^
1M
0_
0P
17
18
19
1.
1-
1,
1_
1P
0`
0S
07
08
09
1:
0.
0-
0,
1+
1`
1S
0a
0U
0:
1;
0+
1*
1a
1U
0b
0X
0;
1<
0*
1)
1b
1X
0c
0<
1=
0)
1(
0[
1c
0=
1>
06
0(
1'
0&
1[
0>
16
0'
1&
#940000
b11111101 "
b11111101 !
1G
1F
0/
1s
0\
0H
1\
1H
0]
0I
17
1.
1]
1I
0J
07
18
0.
1-
1J
0^
0M
08
0-
1^
1M
0_
0P
19
1,
1_
1P
0`
0S
09
1:
0,
1+
1`
1S
0a
0U
0:
1;
0+
1*
1a
1U
0b
0X
0;
1<
0*
1)
1b
1X
0c
0<
1=
0)
1(
0[
1c
0=
1>
06
0(
1'
0&
1[
0>
16
0'
1&
#960000
b11111111 "
b11111111 !
b11111110 "
b11111110 !
0G
1D
0F
1C
1/
0s
1r
0\
0]
0I
1\
1]
1I
17
18
1.
1-
07
08
0.
0-
#980000
b11111111 "
b11111111 !
1G
1F
0/
1s
0\
0H
1\
1H
0]
0I
17
1.
1]
1I
0J
07
18
0.
1-
1J
0^
0M
08
0-
1^
1M
0_
0P
19
1,
1_
1P
0`
0S
09
1:
0,
1+
1`
1S
0a
0U
0:
1;
0+
1*
1a
1U
0b
0X
0;
1<
0*
1)
1b
1X
0c
0<
1=
0)
1(
0[
1c
0=
1>
06
0(
1'
0&
1[
0>
16
0'
1&
#990000
b1111111 "
b111111 "
b110111 "
b110101 "
b110100 "
0F
0C
0O
0W
0Y
1/
0\
0]
0_
0b
0c
17
18
1:
1=
1>
1.
1-
1+
1(
1'
