MICROCONTROLADOR_MEMORY_TEST2/Digitales_2/Deco_7SEG/simulation/qsim/Deco_7Seg.msim.vcd
$comment
	File created using the following command:
		vcd file Deco_7Seg.msim.vcd -direction
$end
$date
	Wed Oct 05 08:12:11 2022
$end
$version
	ModelSim Version 10.1d
$end
$timescale
	1ps
$end
$scope module Deco_7Seg_vlg_vec_tst $end
$var reg 1 ! A $end
$var reg 1 " B $end
$var reg 1 # C $end
$var reg 1 $ D $end
$var wire 1 % F [6] $end
$var wire 1 & F [5] $end
$var wire 1 ' F [4] $end
$var wire 1 ( F [3] $end
$var wire 1 ) F [2] $end
$var wire 1 * F [1] $end
$var wire 1 + F [0] $end
$var wire 1 , sampler $end
$scope module i1 $end
$var wire 1 - gnd $end
$var wire 1 . vcc $end
$var wire 1 / unknown $end
$var tri1 1 0 devclrn $end
$var tri1 1 1 devpor $end
$var tri1 1 2 devoe $end
$var wire 1 3 F[0]~output_o $end
$var wire 1 4 F[1]~output_o $end
$var wire 1 5 F[2]~output_o $end
$var wire 1 6 F[3]~output_o $end
$var wire 1 7 F[4]~output_o $end
$var wire 1 8 F[5]~output_o $end
$var wire 1 9 F[6]~output_o $end
$var wire 1 : A~input_o $end
$var wire 1 ; B~input_o $end
$var wire 1 < C~input_o $end
$var wire 1 = Mux6~0_combout $end
$var wire 1 > D~input_o $end
$var wire 1 ? Mux5~0_combout $end
$var wire 1 @ Mux4~0_combout $end
$var wire 1 A Mux3~0_combout $end
$var wire 1 B Mux2~0_combout $end
$var wire 1 C Mux1~0_combout $end
$var wire 1 D Mux0~0_combout $end
$upscope $end
$upscope $end
$enddefinitions $end
#0
$dumpvars
0!
0"
0#
0$
1+
0*
0)
0(
0'
0&
0%
x,
0-
1.
x/
10
11
12
13
04
05
06
07
08
09
0:
0;
0<
1=
0>
0?
0@
0A
0B
0C
0D
$end
#50000
1$
1>
0,
1D
1A
1@
1?
19
16
15
14
1%
1(
1)
1*
#100000
1#
0$
1<
0>
1,
0D
1B
0A
0@
0=
09
17
06
05
03
0%
1'
0(
0)
0+
#150000
1$
1>
0,
0B
1@
07
15
0'
1)
#200000
1"
0#
0$
1;
0<
0>
1,
1D
1A
0?
19
16
04
1%
1(
0*
#250000
1$
1>
0,
0D
1C
0A
09
18
06
0%
1&
0(
#300000
1#
0$
1<
0>
1,
1A
0@
16
05
1(
0)
#350000
1$
1>
0,
0C
1@
1?
08
15
14
0&
1)
1*
#400000
1!
0"
0#
0$
1:
0;
0<
0>
1,
0A
0@
0?
06
05
04
0(
0)
0*
#450000
1$
1>
0,
1@
15
1)
#500000
1#
0$
1<
0>
1,
1D
1C
1B
1A
1?
19
18
17
16
14
1%
1&
1'
1(
1*
#550000
1$
1>
0,
#600000
1"
0#
0$
1;
0<
0>
1,
#650000
1$
1>
0,
#700000
1#
0$
1<
0>
1,
#750000
1$
1>
0,
#800000
0!
0"
0#
0$
0:
0;
0<
0>
1,
0D
0C
0B
0A
0@
0?
1=
09
08
07
06
05
04
13
0%
0&
0'
0(
0)
0*
1+
#850000
1$
1>
0,
1D
1A
1@
1?
19
16
15
14
1%
1(
1)
1*
#900000
1#
0$
1<
0>
1,
0D
1B
0A
0@
0=
09
17
06
05
03
0%
1'
0(
0)
0+
#950000
1$
1>
0,
0B
1@
07
15
0'
1)
